…
# Keep all observations in intermediate dataframe `pols_and_snp_df`, and left join with `unemployment_df` on the same keys
# Note that we need to convert `unemployment_df` to a data frame in this step
final_df =
   left_join(pols_and_snp_df, unemployment_df, by = c("year", "month")) %>% 
   # Rename `close` column to be more descriptive
   rename("snp_close" = "close")

# Check out head of final df post-join
final_df
```

    ## # A tibble: 817 × 11
    ##     year month     gov_gop sen_gop rep_gop gov_dem sen_dem rep_dem presidential_pa…
    ##    <dbl> <chr>       <dbl>   <dbl>   <dbl>   <dbl>   <dbl>   <dbl> <chr>           
    ##  1  1947 January        23      51     253      23      45     198 dem             
    ##  2  1947 February       23      51     253      23      45     198 dem             
    ##  3  1947 March          23      51     253      23      45     198 dem             
    ##  4  1947 April          23      51     253      23      45     198 dem             
    ##  5  1947 May            23      51     253      23      45     198 dem             
    ##  6  1947 June           23      51     253      23      45     198 dem             
    ##  7  1947 July           23      51     253      23      45     198 dem             
    ##  8  1947 August         23      51     253      23      45     198 dem             
    ##  9  1947 September      23      51     253      23      45     198 dem             
    ## 10  1947 October        23      51     253      23      45     198 dem             
    ## # … with 807 more rows, and 2 more variables: snp_close <dbl>,
    ## #   percent_unemployed <dbl>
…
